…
    ```{r warning=FALSE}
    airportcounts = dplyr::tbl(con, "flights") %>%
      filter(Cancelled == 0) %>%
      select(Year, Month, Dest) %>%
      group_by(Year, Month) %>%
      summarise(SNA = sum(Dest == "SNA", na.rm = TRUE),
                SJC = sum(Dest == "SJC", na.rm = TRUE),
                SMF = sum(Dest == "SMF", na.rm = TRUE)) %>%
      ungroup() %>%
      collect() %>%
      print(width = Inf)
    ```

    ```
    ## # A tibble: 216 x 5
    ##     Year Month   SNA   SJC   SMF
    ##    <dbl> <dbl> <int> <int> <int>
    ##  1  2001     1  3561  6144  3261
    ##  2  2001     2  3183  5532  2902
    ##  3  2001     3  3560  6221  3322
    ##  4  2001     4  3467  6090  3274
    ##  5  2001     5  3660  6381  3411
    ##  6  2001     6  3673  6293  3443
    ##  7  2001     7  3860  6540  3655
    ##  8  2001     8  3927  6585  3680
    ##  9  2001     9  2883  4732  2846
    ## 10  2001    10  3465  5533  3342
    ## # ... with 206 more rows
    ```

3. Add a new column to airportcounts by constructing a `Date` variable from the variables `Year` and `Month` (using helper functions from the `lubridate` package). Sort the rows in ascending order of dates.

    ```{r warning=FALSE}
    airportcounts = airportcounts %>%
      mutate(Date = make_date(Year, Month, 1)) %>%
      arrange(Date) %>%
      print(width = Inf)
    ```
    ```
    ## # A tibble: 216 x 6
    ##     Year Month   SNA   SJC   SMF Date      
    ##    <dbl> <dbl> <int> <int> <int> <date>    
    ##  1  2001     1  3561  6144  3261 2001-01-01
    ##  2  2001     2  3183  5532  2902 2001-02-01
    ##  3  2001     3  3560  6221  3322 2001-03-01
    ##  4  2001     4  3467  6090  3274 2001-04-01
    ##  5  2001     5  3660  6381  3411 2001-05-01
    ##  6  2001     6  3673  6293  3443 2001-06-01
    ##  7  2001     7  3860  6540  3655 2001-07-01
    ##  8  2001     8  3927  6585  3680 2001-08-01
    ##  9  2001     9  2883  4732  2846 2001-09-01
    ## 10  2001    10  3465  5533  3342 2001-10-01
    ## # ... with 206 more rows
    ```
…
    ```{r warning=FALSE}
    delays = dplyr::tbl(con, "flights") %>%
      filter(Origin == "ORD", Dest == "MSP", Year == 2015,
             Op_Unique_Carrier %in% c("UA", "DL", "AA", "MQ"), Cancelled == 0) %>%
      select(Year, Month, Day_of_Month, Op_Unique_Carrier, Arr_Delay) %>%
      group_by(Year, Month, Day_of_Month, Op_Unique_Carrier) %>%
      summarise(Avg_Arr_Delay = mean(Arr_Delay, na.rm = TRUE)) %>%
      ungroup() %>%
      collect() %>%
      print(width = Inf)
    ```

    ```
    ## # A tibble: 1,188 x 5
    ##     Year Month Day_of_Month Op_Unique_Carrier Avg_Arr_Delay
    ##    <dbl> <dbl>        <dbl> <chr>                     <dbl>
    ##  1  2015     1            1 AA                       120.  
    ##  2  2015     1            1 DL                       -12.5 
    ##  3  2015     1            1 MQ                         2.33
    ##  4  2015     1            2 AA                       -10.5 
    ##  5  2015     1            2 DL                        -1   
    ##  6  2015     1            2 MQ                         3.33
    ##  7  2015     1            3 AA                       124.  
    ##  8  2015     1            3 DL                        48.5 
    ##  9  2015     1            3 MQ                        20   
    ## 10  2015     1            4 AA                       101.  
    ## # ... with 1,178 more rows
    ```
…
